SMC/03_fp16_to_fp32_multiplier/sim_output/sim_output.log
Chronologic VCS simulator copyright 1991-2018
Contains Synopsys proprietary information.
Compiler version O-2018.09-SP2_Full64; Runtime version O-2018.09-SP2_Full64;  Sep  3 11:34 2025

 VCS Coverage Metrics Release O-2018.09-SP2_Full64 Copyright (c) 1991-2018 by Synopsys Inc.
开始固定测试...
固定测试 0: 通过 - a=3c00, b=3c00, softfloat=3f800000 (标志=00000000), 实际值=3f800000
固定测试 1: 通过 - a=4000, b=3c00, softfloat=40000000 (标志=00000000), 实际值=40000000
固定测试 2: 通过 - a=3c00, b=4000, softfloat=40000000 (标志=00000000), 实际值=40000000
固定测试 3: 通过 - a=7bff, b=3c00, softfloat=477fe000 (标志=00000000), 实际值=477fe000
固定测试 4: 通过 - a=0400, b=3c00, softfloat=38800000 (标志=00000000), 实际值=38800000
固定测试 5: 通过 - a=7c00, b=3c00, softfloat=7f800000 (标志=00000000), 实际值=7f800000
固定测试 6: 通过 - a=3c00, b=7c00, softfloat=7f800000 (标志=00000000), 实际值=7f800000
固定测试 7: 通过 - a=7c00, b=7c00, softfloat=7f800000 (标志=00000000), 实际值=7f800000
固定测试 8: 通过 - a=7c01, b=3c00, softfloat=7fc02000 (标志=00000010), 实际值=7fc00000
固定测试 9: 通过 - a=3c00, b=7c01, softfloat=7fc02000 (标志=00000010), 实际值=7fc00000
固定测试 10: 通过 - a=0000, b=3c00, softfloat=00000000 (标志=00000000), 实际值=00000000
固定测试 11: 通过 - a=3c00, b=0000, softfloat=00000000 (标志=00000000), 实际值=00000000
固定测试 12: 通过 - a=8000, b=3c00, softfloat=80000000 (标志=00000000), 实际值=80000000
固定测试 13: 通过 - a=0001, b=3c00, softfloat=33800000 (标志=00000000), 实际值=33800000
固定测试 14: 通过 - a=03ff, b=3c00, softfloat=387fc000 (标志=00000000), 实际值=387fc000
固定测试 15: 通过 - a=4400, b=4400, softfloat=41800000 (标志=00000000), 实际值=41800000
固定测试 16: 通过 - a=4400, b=4500, softfloat=41a00000 (标志=00000000), 实际值=41a00000
固定测试 17: 通过 - a=4400, b=3e00, softfloat=40c00000 (标志=00000000), 实际值=40c00000
固定测试 18: 通过 - a=3800, b=3800, softfloat=3e800000 (标志=00000000), 实际值=3e800000
固定测试 19: 通过 - a=4400, b=c000, softfloat=c1000000 (标志=00000000), 实际值=c1000000
固定测试 20: 通过 - a=bc00, b=bc00, softfloat=3f800000 (标志=00000000), 实际值=3f800000
固定测试 21: 通过 - a=5400, b=5400, softfloat=45800000 (标志=00000000), 实际值=45800000
固定测试 22: 通过 - a=4800, b=3400, softfloat=40000000 (标志=00000000), 实际值=40000000
固定测试 23: 通过 - a=0400, b=0400, softfloat=31800000 (标志=00000000), 实际值=31800000
固定测试 24: 通过 - a=7800, b=0400, softfloat=40000000 (标志=00000000), 实际值=40000000
固定测试 25: 通过 - a=0400, b=7800, softfloat=40000000 (标志=00000000), 实际值=40000000
固定测试 26: 通过 - a=7800, b=7800, softfloat=4e800000 (标志=00000000), 实际值=4e800000
固定测试 27: 通过 - a=7800, b=0800, softfloat=40800000 (标志=00000000), 实际值=40800000
固定测试 28: 通过 - a=3bff, b=4000, softfloat=3fffe000 (标志=00000000), 实际值=3fffe000
固定测试 29: 通过 - a=3c01, b=3c01, softfloat=3f804008 (标志=00000000), 实际值=3f804008
固定测试 30: 通过 - a=0001, b=0001, softfloat=27800000 (标志=00000000), 实际值=27800000
固定测试 31: 通过 - a=0400, b=8400, softfloat=b1800000 (标志=00000000), 实际值=b1800000
固定测试 32: 通过 - a=7c00, b=0000, softfloat=ffc00000 (标志=00000010), 实际值=7fc00000
固定测试 33: 通过 - a=fc00, b=7c00, softfloat=ff800000 (标志=00000000), 实际值=ff800000
固定测试 34: 通过 - a=7c01, b=7c00, softfloat=7fc02000 (标志=00000010), 实际值=7fc00000
固定测试 35: 通过 - a=0000, b=8000, softfloat=80000000 (标志=00000000), 实际值=80000000
固定测试 36: 通过 - a=03ff, b=0400, softfloat=317fc000 (标志=00000000), 实际值=317fc000
固定测试 37: 通过 - a=7bff, b=7bff, softfloat=4f7fc004 (标志=00000000), 实际值=4f7fc004
固定测试完成
开始无效指令测试 (组0, 寄存器组0)...
无效指令测试通过: 结果保持不变
开始所有寄存器组组合测试 (组0)...
交叉寄存器(0*0)测试 39: 通过 - a=3c00, b=4000, softfloat=40000000 (标志=00000000), 实际值=40000000
交叉寄存器(0*1)测试 40: 通过 - a=3c00, b=4400, softfloat=40800000 (标志=00000000), 实际值=40800000
交叉寄存器(1*0)测试 41: 通过 - a=bc00, b=4000, softfloat=c0000000 (标志=00000000), 实际值=c0000000
交叉寄存器(1*1)测试 42: 通过 - a=bc00, b=4400, softfloat=c0800000 (标志=00000000), 实际值=c0800000
开始32组同时随机测试 (5轮，每轮32组)...
32组同时测试 43: 通过 - a=3524, b=5e81, softfloat=4305bc90 (标志=00000000), 实际值=4305bc90
32组同时测试 44: 通过 - a=d609, b=5663, softfloat=c61a2dec (标志=00000000), 实际值=c61a2dec
32组同时测试 45: 通过 - a=7b0d, b=998d, softfloat=c31c8ca4 (标志=00000000), 实际值=c31c8ca4
32组同时测试 46: 通过 - a=8465, b=5212, softfloat=bb5568d0 (标志=00000000), 实际值=bb5568d0
32组同时测试 47: 通过 - a=e301, b=cd0d, softfloat=468d8034 (标志=00000000), 实际值=468d8034
32组同时测试 48: 通过 - a=f176, b=cd3d, softfloat=4864d8f0 (标志=00000000), 实际值=4864d8f0
32组同时测试 49: 通过 - a=57ed, b=f78c, softfloat=ca6f4270 (标志=00000000), 实际值=ca6f4270
32组同时测试 50: 通过 - a=e9f9, b=24c6, softfloat=c26414b0 (标志=00000000), 实际值=c26414b0
32组同时测试 51: 通过 - a=84c5, b=d2aa, softfloat=3b7e4690 (标志=00000000), 实际值=3b7e4690
32组同时测试 52: 通过 - a=f7e5, b=7277, softfloat=cdcc25cc (标志=00000000), 实际值=cdcc25cc
32组同时测试 53: 通过 - a=d612, b=db8f, softfloat=46b78838 (标志=00000000), 实际值=46b78838
32组同时测试 54: 通过 - a=69f2, b=96ce, softfloat=c0a1d2f0 (标志=00000000), 实际值=c0a1d2f0
32组同时测试 55: 通过 - a=7ae8, b=4ec5, softfloat=49bb0220 (标志=00000000), 实际值=49bb0220
32组同时测试 56: 通过 - a=495c, b=28bd, softfloat=3ecb2760 (标志=00000000), 实际值=3ecb2760
32组同时测试 57: 通过 - a=582d, b=2665, softfloat=40559e08 (标志=00000000), 实际值=40559e08
32组同时测试 58: 通过 - a=6263, b=870a, softfloat=bdb3d378 (标志=00000000), 实际值=bdb3d378
32组同时测试 59: 通过 - a=2280, b=2120, softfloat=39054000 (标志=00000000), 实际值=39054000
32组同时测试 60: 通过 - a=45aa, b=cc9d, softfloat=c2d10a10 (标志=00000000), 实际值=c2d10a10
32组同时测试 61: 通过 - a=3e96, b=b813, softfloat=bf56a910 (标志=00000000), 实际值=bf56a910
32组同时测试 62: 通过 - a=380d, b=d653, softfloat=c24cf1b8 (标志=00000000), 实际值=c24cf1b8
32组同时测试 63: 通过 - a=dd6b, b=2ad5, softfloat=c194101c (标志=00000000), 实际值=c194101c
32组同时测试 64: 通过 - a=4a02, b=3eae, softfloat=41a08570 (标志=00000000), 实际值=41a08570
32组同时测试 65: 通过 - a=e91d, b=72cf, softfloat=cc0b41cc (标志=00000000), 实际值=cc0b41cc
32组同时测试 66: 通过 - a=4923, b=650a, softfloat=464f12f0 (标志=00000000), 实际值=464f12f0
32组同时测试 67: 通过 - a=0aca, b=4c3c, softfloat=3b65fac0 (标志=00000000), 实际值=3b65fac0
32组同时测试 68: 通过 - a=bdf2, b=618a, softfloat=c483b9d0 (标志=00000000), 实际值=c483b9d0
32组同时测试 69: 通过 - a=b341, b=34d8, softfloat=bd8c8b60 (标志=00000000), 实际值=bd8c8b60
32组同时测试 70: 通过 - a=f378, b=1289, softfloat=c1433ce0 (标志=00000000), 实际值=c1433ce0
32组同时测试 71: 通过 - a=0deb, b=65b6, softfloat=3f073048 (标志=00000000), 实际值=3f073048
32组同时测试 72: 通过 - a=f9c6, b=13ae, softfloat=c2315a50 (标志=00000000), 实际值=c2315a50
32组同时测试 73: 通过 - a=02bc, b=dd2a, softfloat=bc61ed80 (标志=00000000), 实际值=bc61ed80
32组同时测试 74: 通过 - a=9a0b, b=be71, softfloat=3b9bb36c (标志=00000000), 实际值=3b9bb36c
第1轮32组同时测试完成：通过32组，失败0组
32组同时测试 75: 通过 - a=4185, b=554f, softfloat=436a6858 (标志=00000000), 实际值=436a6858
32组同时测试 76: 通过 - a=603b, b=333a, softfloat=42f492f0 (标志=00000000), 实际值=42f492f0
32组同时测试 77: 通过 - a=327e, b=4b15, softfloat=4037e958 (标志=00000000), 实际值=4037e958
32组同时测试 78: 通过 - a=9bf1, b=4bd9, softfloat=bd794924 (标志=00000000), 实际值=bd794924
32组同时测试 79: 通过 - a=0762, b=fb4c, softfloat=c0d77c60 (标志=00000000), 实际值=c0d77c60
32组同时测试 80: 通过 - a=559f, b=a18f, softfloat=bf79f688 (标志=00000000), 实际值=bf79f688
32组同时测试 81: 通过 - a=a9f8, b=60b7, softfloat=c1e12240 (标志=00000000), 实际值=c1e12240
32组同时测试 82: 通过 - a=569f, b=945c, softfloat=bde6e920 (标志=00000000), 实际值=bde6e920
32组同时测试 83: 通过 - a=c05b, b=3789, softfloat=bf8346cc (标志=00000000), 实际值=bf8346cc
32组同时测试 84: 通过 - a=3249, b=3ed0, softfloat=3eab4540 (标志=00000000), 实际值=3eab4540
32组同时测试 85: 通过 - a=c0d7, b=fc51, softfloat=ffca2000 (标志=00000000), 实际值=7fc00000
32组同时测试 86: 通过 - a=2f96, b=7f0c, softfloat=7fe18000 (标志=00000000), 实际值=7fc00000
32组同时测试 87: 通过 - a=cec2, b=edc8, softfloat=481c4640 (标志=00000000), 实际值=481c4640
32组同时测试 88: 通过 - a=5a77, b=ed3d, softfloat=c987756c (标志=00000000), 实际值=c987756c
32组同时测试 89: 通过 - a=db12, b=007e, softfloat=badeb700 (标志=00000000), 实际值=badeb700
32组同时测试 90: 通过 - a=816d, b=e739, softfloat=3d24c450 (标志=00000000), 实际值=3d24c450
32组同时测试 91: 通过 - a=8f1f, b=f6d3, softfloat=41426234 (标志=00000000), 实际值=41426234
32组同时测试 92: 通过 - a=2f85, b=8878, softfloat=b7866960 (标志=00000000), 实际值=b7866960
32组同时测试 93: 通过 - a=595b, b=4b49, softfloat=451c0fcc (标志=00000000), 实际值=451c0fcc
32组同时测试 94: 通过 - a=ae3f, b=af2a, softfloat=3c32fd58 (标志=00000000), 实际值=3c32fd58
32组同时测试 95: 通过 - a=6358, b=3886, softfloat=4404e040 (标志=00000000), 实际值=4404e040
32组同时测试 96: 通过 - a=0c8e, b=f29c, softfloat=c070d440 (标志=00000000), 实际值=c070d440
32组同时测试 97: 通过 - a=99fa, b=bc26, softfloat=3b4658e0 (标志=00000000), 实际值=3b4658e0
32组同时测试 98: 通过 - a=1773, b=b4a3, softfloat=ba0a28e4 (标志=00000000), 实际值=ba0a28e4
32组同时测试 99: 通过 - a=a82f, b=92b3, softfloat=37e036e8 (标志=00000000), 实际值=37e036e8
32组同时测试 100: 通过 - a=565f, b=0d44, softfloat=3d0630f0 (标志=00000000), 实际值=3d0630f0
32组同时测试 101: 通过 - a=fdf7, b=36cb, softfloat=fffee000 (标志=00000000), 实际值=ffc00000
32组同时测试 102: 通过 - a=1ae6, b=db5a, softfloat=bf4adb70 (标志=00000000), 实际值=bf4adb70
32组同时测试 103: 通过 - a=c129, b=e2ed, softfloat=450ef3d4 (标志=00000000), 实际值=450ef3d4
32组同时测试 104: 通过 - a=6cda, b=b665, softfloat=c4f83010 (标志=00000000), 实际值=c4f83010
32组同时测试 105: 通过 - a=e2b5, b=94df, softfloat=3f82aeac (标志=00000000), 实际值=3f82aeac
32组同时测试 106: 通过 - a=1979, b=ff44, softfloat=ffe88000 (标志=00000000), 实际值=ffc00000
第2轮32组同时测试完成：通过32组，失败0组
32组同时测试 107: 通过 - a=0cd0, b=0b2a, softfloat=3389e880 (标志=00000000), 实际值=3389e880
32组同时测试 108: 通过 - a=adab, b=cf0e, softfloat=401ff168 (标志=00000000), 实际值=401ff168
32组同时测试 109: 通过 - a=addc, b=bc9a, softfloat=3dd7b2c0 (标志=00000000), 实际值=3dd7b2c0
32组同时测试 110: 通过 - a=72fd, b=02c3, softfloat=3f1a65b8 (标志=00000000), 实际值=3f1a65b8
32组同时测试 111: 通过 - a=ed56, b=e94e, softfloat=4b6271a0 (标志=00000000), 实际值=4b6271a0
32组同时测试 112: 通过 - a=7667, b=340a, softfloat=45cee030 (标志=00000000), 实际值=45cee030
32组同时测试 113: 通过 - a=b9b6, b=8a38, softfloat=390e0f40 (标志=00000000), 实际值=390e0f40
32组同时测试 114: 通过 - a=8779, b=c4b8, softfloat=3a0d0be0 (标志=00000000), 实际值=3a0d0be0
32组同时测试 115: 通过 - a=bf94, b=5d93, softfloat=c428f7f0 (标志=00000000), 实际值=c428f7f0
32组同时测试 116: 通过 - a=2c04, b=ca59, softfloat=bf4beb20 (标志=00000000), 实际值=bf4beb20
32组同时测试 117: 通过 - a=69db, b=de4d, softfloat=c993937c (标志=00000000), 实际值=c993937c
32组同时测试 118: 通过 - a=b7d9, b=266d, softfloat=bc49b594 (标志=00000000), 实际值=bc49b594
32组同时测试 119: 通过 - a=e276, b=49ca, softfloat=c6159c70 (标志=00000000), 实际值=c6159c70
32组同时测试 120: 通过 - a=2db6, b=7195, softfloat=447f0770 (标志=00000000), 实际值=447f0770
32组同时测试 121: 通过 - a=1a46, b=9b04, softfloat=b7300c60 (标志=00000000), 实际值=b7300c60
32组同时测试 122: 通过 - a=61f7, b=0769, softfloat=3db0cd3c (标志=00000000), 实际值=3db0cd3c
32组同时测试 123: 通过 - a=bab4, b=8d88, softfloat=39944e80 (标志=00000000), 实际值=39944e80
32组同时测试 124: 通过 - a=d928, b=042d, softfloat=bc2c4040 (标志=00000000), 实际值=bc2c4040
32组同时测试 125: 通过 - a=30c7, b=9c2e, softfloat=ba1fbe10 (标志=00000000), 实际值=ba1fbe10
32组同时测试 126: 通过 - a=e408, b=451c, softfloat=c5a4c700 (标志=00000000), 实际值=c5a4c700
32组同时测试 127: 通过 - a=a6fd, b=0729, softfloat=b6482614 (标志=00000000), 实际值=b6482614
32组同时测试 128: 通过 - a=901c, b=6786, softfloat=bf775540 (标志=00000000), 实际值=bf775540
32组同时测试 129: 通过 - a=08da, b=c63d, softfloat=ba721f90 (标志=00000000), 实际值=ba721f90
32组同时测试 130: 通过 - a=a766, b=c470, softfloat=3e035280 (标志=00000000), 实际值=3e035280
32组同时测试 131: 通过 - a=0473, b=99ba, softfloat=b44bd470 (标志=00000000), 实际值=b44bd470
32组同时测试 132: 通过 - a=b35e, b=79fa, softfloat=c6301f30 (标志=00000000), 实际值=c6301f30
32组同时测试 133: 通过 - a=05d5, b=f61a, softfloat=c00e5688 (标志=00000000), 实际值=c00e5688
32组同时测试 134: 通过 - a=00b9, b=6137, softfloat=3bf12fc0 (标志=00000000), 实际值=3bf12fc0
32组同时测试 135: 通过 - a=3796, b=21c0, softfloat=3bae7a00 (标志=00000000), 实际值=3bae7a00
32组同时测试 136: 通过 - a=9f26, b=1ab6, softfloat=b7bfe410 (标志=00000000), 实际值=b7bfe410
32组同时测试 137: 通过 - a=837d, b=0fdc, softfloat=b2db5360 (标志=00000000), 实际值=b2db5360
32组同时测试 138: 通过 - a=5786, b=ff78, softfloat=ffef0000 (标志=00000000), 实际值=ffc00000
第3轮32组同时测试完成：通过32组，失败0组
32组同时测试 139: 通过 - a=9b7e, b=80db, softfloat=334d1940 (标志=00000000), 实际值=334d1940
32组同时测试 140: 通过 - a=b6cf, b=2b79, softfloat=bccb835c (标志=00000000), 实际值=bccb835c
32组同时测试 141: 通过 - a=e4fa, b=ee61, softfloat=4afdf5d0 (标志=00000000), 实际值=4afdf5d0
32组同时测试 142: 通过 - a=0917, b=78a1, softfloat=40bc7bb8 (标志=00000000), 实际值=40bc7bb8
32组同时测试 143: 通过 - a=9186, b=9650, softfloat=358b7780 (标志=00000000), 实际值=358b7780
32组同时测试 144: 通过 - a=59f5, b=8835, softfloat=bcc87dc8 (标志=00000000), 实际值=bcc87dc8
32组同时测试 145: 通过 - a=8a29, b=75c1, softfloat=c08dc7a4 (标志=00000000), 实际值=c08dc7a4
32组同时测试 146: 通过 - a=74c5, b=b498, softfloat=c5af47c0 (标志=00000000), 实际值=c5af47c0
32组同时测试 147: 通过 - a=7b4b, b=4273, softfloat=483c22c4 (标志=00000000), 实际值=483c22c4
32组同时测试 148: 通过 - a=e6ec, b=168a, softfloat=c0350ce0 (标志=00000000), 实际值=c0350ce0
32组同时测试 149: 通过 - a=d14e, b=80a8, softfloat=39decc00 (标志=00000000), 实际值=39decc00
32组同时测试 150: 通过 - a=fda9, b=8ca1, softfloat=fff52000 (标志=00000000), 实际值=7fc00000
32组同时测试 151: 通过 - a=b90e, b=66e6, softfloat=c48b7a50 (标志=00000000), 实际值=c48b7a50
32组同时测试 152: 通过 - a=c09f, b=b52a, softfloat=3f3ee8b0 (标志=00000000), 实际值=3f3ee8b0
32组同时测试 153: 通过 - a=1d2a, b=f48d, softfloat=c2bc0110 (标志=00000000), 实际值=c2bc0110
32组同时测试 154: 通过 - a=ff9e, b=e638, softfloat=fff3c000 (标志=00000000), 实际值=7fc00000
32组同时测试 155: 通过 - a=a879, b=e3c8, softfloat=420b3620 (标志=00000000), 实际值=420b3620
32组同时测试 156: 通过 - a=45ca, b=4113, softfloat=416afff0 (标志=00000000), 实际值=416afff0
32组同时测试 157: 通过 - a=c96b, b=aec7, softfloat=3f92e0b4 (标志=00000000), 实际值=3f92e0b4
32组同时测试 158: 通过 - a=ddb6, b=9dba, softfloat=4002d0f0 (标志=00000000), 实际值=4002d0f0
32组同时测试 159: 通过 - a=abc4, b=95b9, softfloat=38b1c290 (标志=00000000), 实际值=38b1c290
32组同时测试 160: 通过 - a=d392, b=9ab4, softfloat=3e4afaa0 (标志=00000000), 实际值=3e4afaa0
32组同时测试 161: 通过 - a=3b7f, b=9086, softfloat=ba07a1e8 (标志=00000000), 实际值=ba07a1e8
32组同时测试 162: 通过 - a=f5fa, b=94f2, softfloat=41ec72a0 (标志=00000000), 实际值=41ec72a0
32组同时测试 163: 通过 - a=2132, b=5ebd, softfloat=408c07a8 (标志=00000000), 实际值=408c07a8
32组同时测试 164: 通过 - a=cd84, b=a4e4, softfloat=3ed7cc80 (标志=00000000), 实际值=3ed7cc80
32组同时测试 165: 通过 - a=cfca, b=79a9, softfloat=c9b05968 (标志=00000000), 实际值=c9b05968
32组同时测试 166: 通过 - a=a8a1, b=a98e, softfloat=3acdb270 (标志=00000000), 实际值=3acdb270
32组同时测试 167: 通过 - a=6afb, b=1e0b, softfloat=41a8bb24 (标志=00000000), 实际值=41a8bb24
32组同时测试 168: 通过 - a=90ef, b=3dc9, softfloat=ba645538 (标志=00000000), 实际值=ba645538
32组同时测试 169: 通过 - a=e536, b=4875, softfloat=c639cd70 (标志=00000000), 实际值=c639cd70
32组同时测试 170: 通过 - a=568f, b=bf6b, softfloat=c3429b14 (标志=00000000), 实际值=c3429b14
第4轮32组同时测试完成：通过32组，失败0组
32组同时测试 171: 通过 - a=e788, b=b4ae, softfloat=440cf9c0 (标志=00000000), 实际值=440cf9c0
32组同时测试 172: 通过 - a=819b, b=4592, softfloat=b90f1660 (标志=00000000), 实际值=b90f1660
32组同时测试 173: 通过 - a=df28, b=e02d, softfloat=486f1040 (标志=00000000), 实际值=486f1040
32组同时测试 174: 通过 - a=5f4b, b=b0c2, softfloat=c28acb58 (标志=00000000), 实际值=c28acb58
32组同时测试 175: 通过 - a=f61e, b=050d, softfloat=bff72c30 (标志=00000000), 实际值=bff72c30
32组同时测试 176: 通过 - a=fdec, b=9d18, softfloat=fffd8000 (标志=00000000), 实际值=7fc00000
32组同时测试 177: 通过 - a=1bd1, b=1c86, softfloat=378d6d98 (标志=00000000), 实际值=378d6d98
32组同时测试 178: 通过 - a=2441, b=643b, softfloat=418ff7d8 (标志=00000000), 实际值=418ff7d8
32组同时测试 179: 通过 - a=f9d8, b=e953, softfloat=4cf8e840 (标志=00000000), 实际值=4cf8e840
32组同时测试 180: 通过 - a=6256, b=225b, softfloat=41211248 (标志=00000000), 实际值=41211248
32组同时测试 181: 通过 - a=fae2, b=e204, softfloat=4c259e20 (标志=00000000), 实际值=4c259e20
32组同时测试 182: 通过 - a=0373, b=b4d8, softfloat=b785a840 (标志=00000000), 实际值=b785a840
32组同时测试 183: 通过 - a=4d12, b=44b8, softfloat=42bf6780 (标志=00000000), 实际值=42bf6780
32组同时测试 184: 通过 - a=1239, b=b6e5, softfloat=b9ab9bf4 (标志=00000000), 实际值=b9ab9bf4
32组同时测试 185: 通过 - a=dca1, b=0f2b, softfloat=be04b82c (标志=00000000), 实际值=be04b82c
32组同时测试 186: 通过 - a=5d81, b=85c8, softfloat=bcfe8e40 (标志=00000000), 实际值=bcfe8e40
32组同时测试 187: 通过 - a=5527, b=f9a1, softfloat=ca680438 (标志=00000000), 实际值=ca680438
32组同时测试 188: 通过 - a=6e1f, b=3a04, softfloat=459349f0 (标志=00000000), 实际值=459349f0
32组同时测试 189: 通过 - a=2358, b=8096, softfloat=b409b200 (标志=00000000), 实际值=b409b200
32组同时测试 190: 通过 - a=9314, b=b412, softfloat=39667b40 (标志=00000000), 实际值=39667b40
32组同时测试 191: 通过 - a=7096, b=e2b1, softfloat=caf57db0 (标志=00000000), 实际值=caf57db0
32组同时测试 192: 通过 - a=d555, b=8eed, softfloat=3d13b6c4 (标志=00000000), 实际值=3d13b6c4
32组同时测试 193: 通过 - a=2b2b, b=1bf5, softfloat=3964249c (标志=00000000), 实际值=3964249c
32组同时测试 194: 通过 - a=03ad, b=2227, softfloat=3534ead8 (标志=00000000), 实际值=3534ead8
32组同时测试 195: 通过 - a=ff84, b=e4a7, softfloat=fff08000 (标志=00000000), 实际值=7fc00000
32组同时测试 196: 通过 - a=a6e7, b=90b9, softfloat=378263bc (标志=00000000), 实际值=378263bc
32组同时测试 197: 通过 - a=5649, b=bbdb, softfloat=c2c57dcc (标志=00000000), 实际值=c2c57dcc
32组同时测试 198: 通过 - a=0fc9, b=b151, softfloat=b8a58e64 (标志=00000000), 实际值=b8a58e64
32组同时测试 199: 通过 - a=5ea1, b=dd2a, softfloat=c808eda8 (标志=00000000), 实际值=c808eda8
32组同时测试 200: 通过 - a=45fa, b=2045, softfloat=3d4c2310 (标志=00000000), 实际值=3d4c2310
32组同时测试 201: 通过 - a=0583, b=427c, softfloat=398ef5d0 (标志=00000000), 实际值=398ef5d0
32组同时测试 202: 通过 - a=1472, b=3cfe, softfloat=3ab188e0 (标志=00000000), 实际值=3ab188e0
第5轮32组同时测试完成：通过32组，失败0组
32组同时随机测试完成
开始随机测试 (1000次)...
随机测试 0: 通过 - a=f268, b=aa6f, softfloat=4424dc60 (标志=00000000), 实际值=4424dc60
随机测试 1: 通过 - a=0d86, b=21f0, softfloat=36832e80 (标志=00000000), 实际值=36832e80
随机测试 2: 通过 - a=9738, b=9140, softfloat=35979800 (标志=00000000), 实际值=35979800
随机测试 3: 通过 - a=7628, b=a9f6, softfloat=c492c9c0 (标志=00000000), 实际值=c492c9c0
随机测试 4: 通过 - a=1ac5, b=31c0, softfloat=3a1bb300 (标志=00000000), 实际值=3a1bb300
随机测试 5: 通过 - a=5f74, b=7139, softfloat=4a9bb350 (标志=00000000), 实际值=4a9bb350
随机测试 6: 通过 - a=6ab0, b=873c, softfloat=bec18500 (标志=00000000), 实际值=bec18500
随机测试 7: 通过 - a=932a, b=d362, softfloat=3d539050 (标志=00000000), 实际值=3d539050
随机测试 8: 通过 - a=3515, b=4ee1, softfloat=410bd5d4 (标志=00000000), 实际值=410bd5d4
随机测试 9: 通过 - a=9d17, b=ee43, softfloat=41fef828 (标志=00000000), 实际值=41fef828
随机测试 10: 通过 - a=e3c9, b=0486, softfloat=bd8cdcd8 (标志=00000000), 实际值=bd8cdcd8
随机测试 11: 通过 - a=cb25, b=9dc1, softfloat=3da46f94 (标志=00000000), 实际值=3da46f94
随机测试 12: 通过 - a=a28d, b=e25a, softfloat=41266e48 (标志=00000000), 实际值=41266e48
随机测试 13: 通过 - a=2707, b=7b2c, softfloat=44c998d0 (标志=00000000), 实际值=44c998d0
随机测试 14: 通过 - a=5d0c, b=e671, softfloat=c9020930 (标志=00000000), 实际值=c9020930
随机测试 15: 通过 - a=7c3b, b=e5b6, softfloat=7fc76000 (标志=00000010), 实际值=ffc00000
随机测试 16: 通过 - a=c2f7, b=ce9e, softfloat=42b859c8 (标志=00000000), 实际值=42b859c8
随机测试 17: 通过 - a=585c, b=f755, softfloat=ca7fb460 (标志=00000000), 实际值=ca7fb460
随机测试 18: 通过 - a=3a20, b=12a0, softfloat=3a225000 (标志=00000000), 实际值=3a225000
随机测试 19: 通过 - a=0972, b=8cb4, softfloat=b34ce140 (标志=00000000), 实际值=b34ce140
随机测试 20: 通过 - a=f5dd, b=f00d, softfloat=4d3e01c8 (标志=00000000), 实际值=4d3e01c8
随机测试 21: 通过 - a=994b, b=4279, softfloat=bc0909cc (标志=00000000), 实际值=bc0909cc
随机测试 22: 通过 - a=da9e, b=64fd, softfloat=c8840898 (标志=00000000), 实际值=c8840898
随机测试 23: 通过 - a=d27b, b=738f, softfloat=c943eed4 (标志=00000000), 实际值=c943eed4
随机测试 24: 通过 - a=9a03, b=29e3, softfloat=b90d8ea4 (标志=00000000), 实际值=b90d8ea4
随机测试 25: 通过 - a=431d, b=3db1, softfloat=40a1f034 (标志=00000000), 实际值=40a1f034
随机测试 26: 通过 - a=9f44, b=bc95, softfloat=3c052a50 (标志=00000000), 实际值=3c052a50
随机测试 27: 通过 - a=34e0, b=78ed, softfloat=46401b00 (标志=00000000), 实际值=46401b00
随机测试 28: 通过 - a=1552, b=5bf8, softfloat=3ea995c0 (标志=00000000), 实际值=3ea995c0
随机测试 29: 通过 - a=b78d, b=c452, softfloat=40027ca8 (标志=00000000), 实际值=40027ca8
随机测试 30: 通过 - a=e784, b=fd46, softfloat=ffe8c000 (标志=00000010), 实际值=7fc00000
随机测试 31: 通过 - a=928c, b=7d90, softfloat=7ff20000 (标志=00000010), 实际值=ffc00000
随机测试 32: 通过 - a=c117, b=616a, softfloat=c4dc7430 (标志=00000000), 实际值=c4dc7430
随机测试 33: 通过 - a=5784, b=bcaa, softfloat=c30c36a0 (标志=00000000), 实际值=c30c36a0
随机测试 34: 通过 - a=0f7c, b=0260, softfloat=328e3400 (标志=00000000), 实际值=328e3400
随机测试 35: 通过 - a=4dba, b=608b, softfloat=46501ff0 (标志=00000000), 实际值=46501ff0
随机测试 36: 通过 - a=fea6, b=1e25, softfloat=ffd4c000 (标志=00000000), 实际值=ffc00000
随机测试 37: 通过 - a=8332, b=04a2, softfloat=b16cda40 (标志=00000000), 实际值=b16cda40
随机测试 38: 通过 - a=7c49, b=b014, softfloat=7fc92000 (标志=00000010), 实际值=ffc00000
随机测试 39: 通过 - a=c03d, b=034b, softfloat=b8df4df0 (标志=00000000), 实际值=b8df4df0
随机测试 40: 通过 - a=305c, b=7547, softfloat=45380c20 (标志=00000000), 实际值=45380c20
随机测试 41: 通过 - a=9786, b=7a39, softfloat=c2bb4358 (标志=00000000), 实际值=c2bb4358
随机测试 42: 通过 - a=8ab4, b=e5d0, softfloat=3e9bd900 (标志=00000000), 实际值=3e9bd900
随机测试 43: 通过 - a=502c, b=458c, softfloat=43392080 (标志=00000000), 实际值=43392080
随机测试 44: 通过 - a=b707, b=406a, softfloat=bf782730 (标志=00000000), 实际值=bf782730
随机测试 45: 通过 - a=f911, b=ffe8, softfloat=fffd0000 (标志=00000000), 实际值=7fc00000
随机测试 46: 通过 - a=9e4b, b=8173, softfloat=3411eb10 (标志=00000000), 实际值=3411eb10
随机测试 47: 通过 - a=5bec, b=0523, softfloat=3ca2c510 (标志=00000000), 实际值=3ca2c510
随机测试 48: 通过 - a=efa4, b=65c9, softfloat=cb30cf10 (标志=00000000), 实际值=cb30cf10
随机测试 49: 通过 - a=0439, b=72df, softfloat=3f681d38 (标志=00000000), 实际值=3f681d38
随机测试 50: 通过 - a=14d4, b=6567, softfloat=3fd0aa60 (标志=00000000), 实际值=3fd0aa60
随机测试 51: 通过 - a=419d, b=25b0, softfloat=3d7f6780 (标志=00000000), 实际值=3d7f6780
随机测试 52: 通过 - a=3982, b=bf49, softfloat=bfa08048 (标志=00000000), 实际值=bfa08048
随机测试 53: 通过 - a=1ad9, b=b720, softfloat=bac32880 (标志=00000000), 实际值=bac32880
随机测试 54: 通过 - a=4c1c, b=6f93, softfloat=47f900a0 (标志=00000000), 实际值=47f900a0
随机测试 55: 通过 - a=61e3, b=822a, softfloat=bccbd3e0 (标志=00000000), 实际值=bccbd3e0
随机测试 56: 通过 - a=f8c8, b=2e5d, softfloat=c5736540 (标志=00000000), 实际值=c5736540
随机测试 57: 通过 - a=9d3a, b=a984, softfloat=39669f40 (标志=00000000), 实际值=39669f40
随机测试 58: 通过 - a=a82b, b=7f39, softfloat=7fe72000 (标志=00000000), 实际值=ffc00000
随机测试 59: 通过 - a=1c12, b=0052, softfloat=32a6e200 (标志=00000000), 实际值=32a6e200
随机测试 60: 通过 - a=8959, b=96d0, softfloat=3491b940 (标志=00000000), 实际值=3491b940
随机测试 61: 通过 - a=ea6e, b=2997, softfloat=c30fc388 (标志=00000000), 实际值=c30fc388
随机测试 62: 通过 - a=87db, b=77a6, softfloat=c0705408 (标志=00000000), 实际值=c0705408
